Building a new geom in ggplot2
…
<img src="images/falpha.png" width="80%" />

---
# Graphing HDRs using R package hdrcde

<i><font size = "4"> Data set: Waiting time between eruptions and the duration of the eruption for the Old Faithful geyser in Yellowstone National Park, Wyoming, USA. </font size = "4"></i>

.pull-left[
```r
faithful %>% as_tibble
```

```
## # A tibble: 272 × 2
##    eruptions waiting
##        <dbl>   <dbl>
##  1      3.6       79
##  2      1.8       54
##  3      3.33      74
##  4      2.28      62
##  5      4.53      85
##  6      2.88      55
##  7      4.7       88
##  8      3.6       85
##  9      1.95      51
## 10      4.35      85
## # … with 262 more rows
```
…
